Process;Status;Mode;DB;OffsetInMin;Comment
KC.Projekt;0;initial;;;
KC.WochenberichtPlan;0;initial;;;
KC.Wochenbericht;0;initial;;;
KC.KreditorKategorie;0;initial;;;
KC.KreditorKlassifizierung;0;initial;;;
Einkaufstracker.Wechselkurs;0;initial;;;
Einkaufstracker.KreditorStamm;1;initial;;;
Einkaufstracker.KreditorUmsatz;1;initial;;;
Einkaufstracker.DebitorUmsatz;0;initial;;;
Einkaufstracker.LieferantStamm;1;initial;;;
Einkaufstracker.ArtikelStamm;1;initial;;;
Einkaufstracker.UserStamm;0;initial;;;
Einkaufstracker.Bestellung;1;initial;;;
Einkaufstracker.Rechnung;0;initial;;;
Einkaufstracker.GoogleGeocode;0;initial;;;"Transact(Anschrift)"
Einkaufstracker.Meta;1;initial;;;
