Process;Status;Mode;Comment;Extension;EssentialFields
KC.Projekt;0;initial;Extract;;
KC.Kalender;1;initial;Projekt;;
KC.WochenberichtHaerteGrad;0;initial;Extract;;
KC.WochenberichtPlan;0;initial;Extract;;
KC.Wochenbericht;0;initial;Extract,Projekt,WochenberichtPlan,WochenberichtHaerteGrad,Kalender;;
KC.WarengruppeMap;0;initial;Extract;;
KC.KreditorKategorie;0;initial;Extract;;
KC.KreditorKlassifizierung;0;initial;Extract;;
Einkaufstracker.Klassifizierung;0;initial;KreditoStamm(LieferantStamm),KreditorKategorie,KreditorKlassifizierung;;
Einkaufstracker.ArtikelStamm;1;initial;Extract;ArtikelNr;
Einkaufstracker.Warengruppe;1;initial;ArtikelStamm,Wochenbericht,WarengruppeMap;;
Einkaufstracker.LieferantStamm;1;initial;Extract;LieferantenNr;
Einkaufstracker.KreditorStamm;0;initial;Extract,Incoterm;KreditorenNr;
Einkaufstracker.UserStamm;1;initial;Extract;UserID_Besteller;
Einkaufstracker.DebitorUmsatz;0;initial;Extract,Kalender;;
Einkaufstracker.Bestellung;1;initial;Extract,Exchange,PreisKategorie,Kalender,ArtikelStamm,Warengruppe,LieferantStamm(KreditoStamm),UserStamm;Bestelldatum;
Einkaufstracker.Rechnung;1;initial;Extract,Exchange,PreisKategorie,Kalender,ArtikelStamm,Warengruppe,LieferantStamm(KreditoStamm);Zahldatum;
Einkaufstracker.KreditorUmsatz;1;initial;Extract,Kalender,KreditoStamm(LieferantStamm);;
Einkaufstracker.WerkGesellschaft;0;initial;Klassifizierung,ArtikelStamm,KreditorStamm,LieferantStamm,UserStamm,Bestellung,Rechnung,KreditorUmsatz,DebitorUmsatz;;
Einkaufstracker.Artikel;1;initial;ArtikelStamm,Bestellung,Rechnung;;
Einkaufstracker.Lieferant;1;initial;LieferantStamm,Bestellung,Rechnung;;
Einkaufstracker.Kreditor;0;initial;KreditorStamm,KreditorUmsatz;;
Einkaufstracker.KreditorLieferant;1;initial;Kreditor,Lieferant;;
Einkaufstracker.Person;1;initial;KreditorLieferant,KreditorStamm,LieferantStamm;;
Einkaufstracker.GoogleGeocode;0;initial;Extract;;
Einkaufstracker.Anschrift;0;initial;KreditorLieferant,KreditorStamm,LieferantStamm,GoogleGeocode;;
Einkaufstracker.User;1;initial;UserStamm,Bestellung;;
Einkaufstracker.UmsatzBestellung;1;initial;Bestellung;Bestellung_Wert,Bestellung_Menge;
Einkaufstracker.UmsatzRechnung;1;initial;Rechnung;Rechnung_Wert,Rechnung_Menge;
Einkaufstracker.UmsatzKreditor;1;initial;KreditorUmsatz;Kreditor_UmsatzProJahrNetto,Kreditor_UmsatzProJahrSkonto;
