Process;Status;Mode;Comment;EssentialFields
KC.Projekt;0;initial;!(Extract);
KC.Kalender;1;initial;0(Projekt);
KC.WochenberichtHaerteGrad;0;initial;!(Extract);
KC.WochenberichtPlan;0;initial;!(Extract);
KC.Wochenbericht;0;initial;Extract,Projekt,WochenberichtPlan,WochenberichtHaerteGrad,Kalender;
KC.Warengruppe;0;initial;!(Extract);
KC.KreditorKategorie;0;initial;!(Extract);
KC.KreditorScope;1;initial;!(Extract);
Einkaufstracker.Wechselkurs;1;initial;0(Extract);
Einkaufstracker.WarengruppeStamm;1;initial;!(Extract);1(Warengruppe_Code,WarengruppeI_Name)
Einkaufstracker.ArtikelStamm;1;initial;!(Extract),0(WarengruppeStamm);!(ArtikelNr)
Einkaufstracker.LieferantStamm;1;initial;!(Extract);!(LieferantenNr)
Einkaufstracker.KreditorStamm;1;initial;!(Extract,Incoterm);!(KreditorenNr)
Einkaufstracker.UserStamm;0;initial;!(Extract);!(UserID_Besteller)
Realcontrolling.Staffel;0;initial;!(Extract);
Einkaufstracker.DebitorUmsatz;0;initial;!(Extract,Wechselkurs,Kalender);
Einkaufstracker.Warenbewegung;0;initial;!(Extract,Wechselkurs,Kalender),0(ArtikelStamm,LieferantStamm,KreditoStamm);!(Buchungsdatum,ArtikelNr)
Einkaufstracker.Bestellung;1;initial;!(Extract,Wechselkurs,PreisKategorie,Kalender),0(ArtikelStamm,WarengruppeStamm,LieferantStamm,KreditoStamm,UserStamm);!(Bestelldatum)
Einkaufstracker.Rechnung;0;initial;!(Extract,Wechselkurs,PreisKategorie,Kalender),0(ArtikelStamm,WarengruppeStamm,LieferantStamm,KreditoStamm);!(Zahldatum)
Einkaufstracker.KreditorUmsatz;1;initial;!(Extract,Wechselkurs,Kalender),0(WarengruppeStamm,KreditoStamm,LieferantStamm);
Realcontrolling.BestellArtikel;1;initial;!(Extract,Wechselkurs,Kalender);1(DatumStartArtikel,DatumStartBericht)
Realcontrolling.KreditorSkonto;1;initial;;
Realcontrolling.Manuell;1;initial;!(Extract,Wechselkurs,Kalender);!(DatumStart,DatumEnde)
Einkaufstracker.WerkGesellschaft;0;initial;1(Extract,Klassifizierung,WarengruppeStamm,ArtikelStamm,KreditorStamm,LieferantStamm,UserStamm,Bestellung,Rechnung,KreditorUmsatz,DebitorUmsatz);
Einkaufstracker.Artikel;1;initial;1(ArtikelStamm,Bestellung,Rechnung);
Einkaufstracker.Warengruppe;0;initial;0(WarengruppeStamm,ArtikelStamm,Wochenbericht,KC.Warengruppe);
Einkaufstracker.Lieferant;1;initial;1(LieferantStamm,Bestellung,Rechnung);
Einkaufstracker.WerkGesellschaft;0;initial;1(Extract,Klassifizierung,WarengruppeStamm,ArtikelStamm,KreditorStamm,LieferantStamm,UserStamm,Bestellung,Rechnung,KreditorUmsatz,DebitorUmsatz);
Einkaufstracker.Artikel;1;initial;1(ArtikelStamm,Bestellung,Rechnung);
Einkaufstracker.Warengruppe;1;initial;0(WarengruppeStamm,ArtikelStamm,Wochenbericht,KC.Warengruppe);
Einkaufstracker.Lieferant;0;initial;1(LieferantStamm,Bestellung,Rechnung);
Einkaufstracker.Kreditor;1;initial;1(KreditorStamm,KreditorUmsatz);
Einkaufstracker.KreditorLieferant;1;initial;1(Kreditor,Lieferant),0(KreditorScope);
Einkaufstracker.Person;0;initial;KreditorLieferant,KreditorStamm,LieferantStamm;
Einkaufstracker.GoogleGeocode;1;initial;!(Extract);
Einkaufstracker.Anschrift;1;initial;KreditorLieferant,KreditorStamm,LieferantStamm,GoogleGeocode;
Einkaufstracker.User;0;initial;0(UserStamm,Bestellung);
Realcontrolling.Abschlussbericht;1;initial;!(Wechselkurs,Kalender),1(BestellArtikel,Manuell);
Realcontrolling.Einsparung;1;initial;!(Abschlussbericht,Kalender);
Einkaufstracker.WarenbewegungKc;0;initial;!(Warenbewegung),0(KreditorLieferant,Warengruppe);
Einkaufstracker.BestellungKc;1;initial;!(Bestellung),0(KreditorLieferant,Warengruppe);
Einkaufstracker.RechnungKc;0;initial;!(Rechnung),0(KreditorLieferant,Warengruppe);
Einkaufstracker.KreditorUmsatzKc;1;initial;!(KreditorUmsatz),0(KreditorLieferant,Warengruppe);
Einkaufstracker.Umsatz;1;initial;1(Bestellung,Rechnung,KreditorUmsatz);
Einkaufstracker.BestellungKc;1;initial;!(Bestellung),0(KreditorLieferant,Warengruppe);
Einkaufstracker.RechnungKc;0;initial;!(Rechnung),0(KreditorLieferant,Warengruppe);
Einkaufstracker.KreditorUmsatzKc;1;initial;!(KreditorUmsatz),0(KreditorLieferant,Warengruppe);
Einkaufstracker.Umsatz;1;initial;1(Bestellung,Rechnung,KreditorUmsatz);
